<?xml version="1.0" encoding="UTF-8" standalone="no"?>
<!-- Generated by graphviz version 12.2.1 (0)
 -->

<!-- Title: Course_Prerequisites Pages: 1 -->

<svg
   width="1069.9808pt"
   height="762pt"
   viewBox="0 0 1069.6983 761.8"
   version="1.1"
   id="svg187"
   sodipodi:docname="prereqs-polished.svg"
   inkscape:version="1.3.1 (91b66b0783, 2023-11-16)"
   xmlns:inkscape="http://www.inkscape.org/namespaces/inkscape"
   xmlns:sodipodi="http://sodipodi.sourceforge.net/DTD/sodipodi-0.dtd"
   xmlns="http://www.w3.org/2000/svg"
   xmlns:svg="http://www.w3.org/2000/svg">
  <defs
     id="defs187" />
  <sodipodi:namedview
     id="namedview187"
     pagecolor="#ffffff"
     bordercolor="#000000"
     borderopacity="0.25"
     inkscape:showpageshadow="2"
     inkscape:pageopacity="0.0"
     inkscape:pagecheckerboard="0"
     inkscape:deskcolor="#d1d1d1"
     inkscape:document-units="pt"
     showgrid="false"
     inkscape:zoom="0.48551346"
     inkscape:cx="525.21716"
     inkscape:cy="531.39618"
     inkscape:window-width="1920"
     inkscape:window-height="1013"
     inkscape:window-x="-9"
     inkscape:window-y="-9"
     inkscape:window-maximized="1"
     inkscape:current-layer="svg187">
    <inkscape:grid
       id="grid187"
       units="pt"
       originx="-65.999895"
       originy="0"
       spacingx="0.99973594"
       spacingy="0.99973753"
       empcolor="#0099e5"
       empopacity="0.30196078"
       color="#0099e5"
       opacity="0.14901961"
       empspacing="5"
       dotted="false"
       gridanglex="30"
       gridanglez="30"
       visible="false" />
  </sodipodi:namedview>
  <polygon
     fill="#ffffff"
     stroke="none"
     points="62,-757.8 1131.7,-757.8 1131.7,4 62,4 "
     id="polygon1"
     transform="translate(-62.000903,757.8)"
     style="fill:#ffffff;fill-opacity:1" />
  <g
     id="clust10"
     class="cluster"
     transform="translate(-62.000903,757.8)">
    <title
       id="title2">cluster_intro</title>
    <polygon
       fill="none"
       stroke="#808080"
       points="547.2,-268.65 712.2,-268.65 712.2,-64 547.2,-64 "
       id="polygon2" />
    <text
       text-anchor="middle"
       x="629.70001"
       y="-251.35001"
       font-family="Times, serif"
       font-size="14px"
       id="text2">Intro Sequence</text>
  </g>
  <g
     id="clust12"
     class="cluster"
     transform="translate(-62.000903,757.8)">
    <title
       id="title3">cluster_req230</title>
    <polygon
       fill="none"
       stroke="#808080"
       points="96.2,-745.8 775.2,-745.8 775.2,-383.05 96.2,-383.05 "
       id="polygon3" />
    <text
       text-anchor="middle"
       x="435.70001"
       y="-728.5"
       font-family="Times, serif"
       font-size="14px"
       id="text3">Electives that require CS 230</text>
  </g>
  <g
     id="clust13"
     class="cluster"
     transform="translate(-62.000903,757.8)">
    <title
       id="title4">cluster200</title>
    <polygon
       fill="none"
       stroke="#ffffff"
       points="104.2,-545.3 654.2,-545.3 654.2,-391.05 104.2,-391.05 "
       id="polygon4" />
    <text
       text-anchor="middle"
       x="379.20001"
       y="-528"
       font-family="Times, serif"
       font-size="14px"
       id="text4">200-level</text>
  </g>
  <g
     id="clust16"
     class="cluster"
     transform="translate(-62.000903,757.8)">
    <title
       id="title5">cluster300</title>
    <polygon
       fill="none"
       stroke="#ffffff"
       points="104.2,-715.55 767.2,-715.55 767.2,-553.3 104.2,-553.3 "
       id="polygon5" />
    <text
       text-anchor="middle"
       x="435.70001"
       y="-698.25"
       font-family="Times, serif"
       font-size="14px"
       id="text5">300-level</text>
  </g>
  <g
     id="node1"
     class="node desc-top"
     transform="translate(-62.000903,757.8)">
    <title
       id="title6">desctop</title>
    <polygon
       fill="#ffffff"
       stroke="#000000"
       points="208,-238.4 208,-202.4 523.2,-202.4 523.2,-238.4 "
       id="polygon6" />
  </g>
  <g
     id="node2"
     class="node desc-bot"
     transform="translate(-62.000903,757.8)">
    <title
       id="title7">descbot</title>
    <polygon
       fill="#ffffff"
       stroke="#000000"
       points="208,-36 208,0 523.2,0 523.2,-36 "
       id="polygon7" />
  </g>
  <g
     id="node21"
     class="node core"
     transform="translate(-62.000903,757.8)">
    <title
       id="title8">cs230</title>
    <polygon
       fill="#ffffff"
       stroke="#000000"
       points="562.2,-238.4 562.2,-202.4 616.2,-202.4 616.2,-238.4 "
       id="polygon8" />
    <text
       text-anchor="middle"
       x="589.20001"
       y="-226.3"
       font-family="Times, serif"
       font-size="8px"
       id="text8">CS 230*</text>
    <text
       text-anchor="middle"
       x="589.20001"
       y="-217.3"
       font-family="Times, serif"
       font-size="8px"
       id="text9">Data</text>
    <text
       text-anchor="middle"
       x="589.20001"
       y="-208.3"
       font-family="Times, serif"
       font-size="8px"
       id="text10">Structures</text>
  </g>
  <g
     id="node3"
     class="node note"
     transform="translate(-62.000903,757.8)">
    <title
       id="title10">footnote</title>
    <polygon
       fill="#ffffff"
       stroke="none"
       points="808.08,-36 808.08,0 1024.33,0 1024.33,-36 "
       id="polygon10" />
    <text
       text-anchor="middle"
       x="916.20001"
       y="-14.9"
       font-family="Times, serif"
       font-size="8px"
       id="text11">*Variants like CS 111M or CS 230P satisfy same requirement.</text>
  </g>
  <g
     id="node6"
     class="node legend-mid"
     transform="translate(-62.000903,757.8)">
    <title
       id="title15">legend_mid</title>
    <polygon
       fill="#ffffff"
       stroke="#000000"
       points="66,-238.4 66,-202.4 188.4,-202.4 188.4,-238.4 "
       id="polygon15" />
  </g>
  <g
     id="node7"
     class="node legend-bot"
     transform="translate(-62.000903,757.8)">
    <title
       id="title18">legend_bot</title>
    <polygon
       fill="#ffffff"
       stroke="#000000"
       points="66,-36 66,0 188.4,0 188.4,-36 "
       id="polygon18" />
  </g>
  <g
     id="node9"
     class="node"
     transform="translate(-62.000903,757.8)">
    <title
       id="title21">anysci</title>
    <polygon
       fill="#ffffff"
       stroke="#000000"
       points="682.45,-36 682.45,0 789.95,0 789.95,-36 "
       id="polygon21" />
    <text
       text-anchor="middle"
       x="736.20001"
       y="-14.9"
       font-family="Times, serif"
       font-size="8px"
       id="text22">Introductory Science Course</text>
  </g>
  <g
     id="node10"
     class="node intro fall"
     transform="translate(-62.000903,757.8)">
    <title
       id="title22">cs110</title>
    <polygon
       fill="#ffffff"
       stroke="#000000"
       points="722.7,-116 722.7,-72 825.7,-72 825.7,-116 "
       id="polygon22" />
    <text
       text-anchor="middle"
       x="774.20001"
       y="-104.4"
       font-family="Times, serif"
       font-size="8px"
       id="text23">CS 110</text>
    <text
       text-anchor="middle"
       x="774.20001"
       y="-95.400002"
       font-family="Times, serif"
       font-size="8px"
       id="text24">Sociotechnical Dimensions</text>
    <text
       text-anchor="middle"
       x="774.20001"
       y="-86.400002"
       font-family="Times, serif"
       font-size="8px"
       id="text25">of Computing in the</text>
    <text
       text-anchor="middle"
       x="774.20001"
       y="-77.400002"
       font-family="Times, serif"
       font-size="8px"
       id="text26">Age of AI</text>
  </g>
  <g
     id="node11"
     class="node core intro"
     transform="translate(-62.000903,757.8)">
    <title
       id="title26">cs111</title>
    <polygon
       fill="#ffffff"
       stroke="#000000"
       points="554.95,-112 554.95,-76 623.45,-76 623.45,-112 "
       id="polygon26" />
    <text
       text-anchor="middle"
       x="589.20001"
       y="-99.900002"
       font-family="Times, serif"
       font-size="8px"
       id="text27">CS 111*</text>
    <text
       text-anchor="middle"
       x="589.20001"
       y="-90.900002"
       font-family="Times, serif"
       font-size="8px"
       id="text28">Programming &amp;</text>
    <text
       text-anchor="middle"
       x="589.20001"
       y="-81.900002"
       font-family="Times, serif"
       font-size="8px"
       id="text29">Problem Solving</text>
  </g>
  <g
     id="node12"
     class="node core intro spring"
     transform="translate(-62.000903,757.8)">
    <title
       id="title29">cs112</title>
    <polygon
       fill="#ffffff"
       stroke="#000000"
       points="641.95,-116 641.95,-72 704.45,-72 704.45,-116 "
       id="polygon29" />
    <text
       text-anchor="middle"
       x="673.20001"
       y="-104.4"
       font-family="Times, serif"
       font-size="8px"
       id="text30">CS 112</text>
    <text
       text-anchor="middle"
       x="673.20001"
       y="-95.400002"
       font-family="Times, serif"
       font-size="8px"
       id="text31">Introduction to</text>
    <text
       text-anchor="middle"
       x="673.20001"
       y="-86.400002"
       font-family="Times, serif"
       font-size="8px"
       id="text32">Computing for</text>
    <text
       text-anchor="middle"
       x="673.20001"
       y="-77.400002"
       font-family="Times, serif"
       font-size="8px"
       id="text33">the Sciences</text>
  </g>
  <g
     id="edge34"
     class="edge corequisite"
     transform="translate(-62.000903,757.8)">
    <title
       id="title33">cs112-&gt;anysci</title>
    <path
       fill="none"
       stroke="#000000"
       d="m 691.42,-71.6 22.8,26.78"
       id="path33" />
    <polygon
       fill="#000000"
       stroke="#000000"
       points="711.48,-42.63 716.81,-47.17 720.63,-37.29 "
       id="polygon33" />
  </g>
  <g
     id="node25"
     class="node math"
     transform="translate(-62.000903,757.8)">
    <title
       id="title34">math115</title>
    <polygon
       fill="#ffffff"
       stroke="#000000"
       points="587.83,-36 587.83,0 664.58,0 664.58,-36 "
       id="polygon34" />
    <text
       text-anchor="middle"
       x="626.20001"
       y="-19.4"
       font-family="Times, serif"
       font-size="8px"
       id="text34">Math 115</text>
    <text
       text-anchor="middle"
       x="626.20001"
       y="-10.4"
       font-family="Times, serif"
       font-size="8px"
       id="text35">Applied Calculus I</text>
  </g>
  <g
     id="edge33"
     class="edge"
     transform="translate(-62.000903,757.8)">
    <title
       id="title35">cs112-&gt;math115</title>
    <path
       fill="none"
       stroke="#000000"
       d="m 659.61,-71.6 -16.48,25.95"
       id="path35" />
    <polygon
       fill="#000000"
       stroke="#000000"
       points="640.3,-47.73 646.21,-43.98 637.89,-37.41 "
       id="polygon35" />
  </g>
  <g
     id="node13"
     class="node intro"
     transform="translate(-62.000903,757.8)">
    <title
       id="title36">cs121</title>
    <polygon
       fill="#ffffff"
       stroke="#000000"
       points="843.7,-112 843.7,-76 916.7,-76 916.7,-112 "
       id="polygon36" />
    <text
       text-anchor="middle"
       x="880.20001"
       y="-99.900002"
       font-family="Times, serif"
       font-size="8px"
       id="text36">CS 121/MAS 121</text>
    <text
       text-anchor="middle"
       x="880.20001"
       y="-90.900002"
       font-family="Times, serif"
       font-size="8px"
       id="text37">Intro to</text>
    <text
       text-anchor="middle"
       x="880.20001"
       y="-81.900002"
       font-family="Times, serif"
       font-size="8px"
       id="text38">Game Design</text>
  </g>
  <g
     id="node14"
     class="node elective"
     transform="translate(-62.000903,757.8)">
    <title
       id="title38">cs200</title>
    <polygon
       fill="#ffffff"
       stroke="#000000"
       points="720.2,-238.4 720.2,-202.4 832.2,-202.4 832.2,-238.4 "
       id="polygon38" />
    <text
       text-anchor="middle"
       x="776.20001"
       y="-226.3"
       font-family="Times, serif"
       font-size="8px"
       id="text39">CS 200</text>
    <text
       text-anchor="middle"
       x="776.20001"
       y="-217.3"
       font-family="Times, serif"
       font-size="8px"
       id="text40">Object-oriented Programming</text>
    <text
       text-anchor="middle"
       x="776.20001"
       y="-208.3"
       font-family="Times, serif"
       font-size="8px"
       id="text41">Studio in Java</text>
  </g>
  <g
     id="edge35"
     class="edge"
     transform="translate(-62.000903,757.8)">
    <title
       id="title41">cs200-&gt;cs111</title>
    <path
       fill="none"
       stroke="#000000"
       d="m 750.2,-202.1 -125.61,83.56"
       id="path41" />
    <polygon
       fill="#000000"
       stroke="#000000"
       points="622.93,-121.64 626.81,-115.81 616.54,-113.19 "
       id="polygon41" />
  </g>
  <g
     id="node15"
     class="node elective fall"
     transform="translate(-62.000903,757.8)">
    <title
       id="title42">cs221</title>
    <polygon
       fill="#ffffff"
       stroke="#000000"
       points="1054.7,-238.4 1054.7,-202.4 1127.7,-202.4 1127.7,-238.4 "
       id="polygon42" />
    <text
       text-anchor="middle"
       x="1091.2"
       y="-226.3"
       font-family="Times, serif"
       font-size="8px"
       id="text42">CS 221/MAS 221</text>
    <text
       text-anchor="middle"
       x="1091.2"
       y="-217.3"
       font-family="Times, serif"
       font-size="8px"
       id="text43">Digital Worlds</text>
    <text
       text-anchor="middle"
       x="1091.2"
       y="-208.3"
       font-family="Times, serif"
       font-size="8px"
       id="text44">for Gaming</text>
  </g>
  <g
     id="node20"
     class="node opt"
     transform="translate(-62.000903,757.8)">
    <title
       id="title44">any100</title>
    <polygon
       fill="#ffffff"
       stroke="#000000"
       points="783,-159.2 790.2,-152 797.4,-159.2 790.2,-166.4 "
       id="polygon44" />
  </g>
  <g
     id="edge38"
     class="edge options"
     transform="translate(-62.000903,757.8)">
    <title
       id="title45">cs221-&gt;any100</title>
    <path
       fill="none"
       stroke="#000000"
       d="m 1054.56,-210.1 -24.29,6.16 q -6.07,1.54 -51.714,9.772 L 795.98,-161.24"
       id="path45" />
  </g>
  <g
     id="node16"
     class="node elective spring"
     transform="translate(-62.000903,757.8)">
    <title
       id="title46">cs204</title>
    <polygon
       fill="#ffffff"
       stroke="#000000"
       points="849.83,-238.4 849.83,-202.4 914.58,-202.4 914.58,-238.4 "
       id="polygon46" />
    <text
       text-anchor="middle"
       x="882.20001"
       y="-226.3"
       font-family="Times, serif"
       font-size="8px"
       id="text46">CS 204</text>
    <text
       text-anchor="middle"
       x="882.20001"
       y="-217.3"
       font-family="Times, serif"
       font-size="8px"
       id="text47">Front-End Web</text>
    <text
       text-anchor="middle"
       x="882.20001"
       y="-208.3"
       font-family="Times, serif"
       font-size="8px"
       id="text48">Development</text>
  </g>
  <g
     id="edge36"
     class="edge"
     transform="translate(-62.000903,757.8)">
    <title
       id="title48">cs204-&gt;cs111</title>
    <path
       fill="none"
       stroke="#000000"
       d="m 849.5,-205.84 -6.64,2.752 q -1.66,0.688 -21.46,7.888 l -59.4,21.6 q -19.8,7.2 -41.454,17.23 l -86.616,40.12"
       id="path48" />
    <polygon
       fill="#000000"
       stroke="#000000"
       points="632.82,-119.59 635.78,-113.25 625.24,-112.19 "
       id="polygon48" />
  </g>
  <g
     id="node17"
     class="node elective"
     transform="translate(-62.000903,757.8)">
    <title
       id="title49">cs220</title>
    <polygon
       fill="#ffffff"
       stroke="#000000"
       points="941.33,-238.4 941.33,-202.4 1015.08,-202.4 1015.08,-238.4 "
       id="polygon49" />
    <text
       text-anchor="middle"
       x="978.20001"
       y="-226.3"
       font-family="Times, serif"
       font-size="8px"
       id="text49">CS 220</text>
    <text
       text-anchor="middle"
       x="978.20001"
       y="-217.3"
       font-family="Times, serif"
       font-size="8px"
       id="text50">Human-Computer</text>
    <text
       text-anchor="middle"
       x="978.20001"
       y="-208.3"
       font-family="Times, serif"
       font-size="8px"
       id="text51">Interaction</text>
  </g>
  <g
     id="node19"
     class="node opt"
     transform="translate(-62.000903,757.8)">
    <title
       id="title51">cs111or112or110</title>
    <polygon
       fill="#ffffff"
       stroke="#000000"
       points="751,-159.2 758.2,-152 765.4,-159.2 758.2,-166.4 "
       id="polygon51" />
  </g>
  <g
     id="edge37"
     class="edge options"
     transform="translate(-62.000903,757.8)">
    <title
       id="title52">cs220-&gt;cs111or112or110</title>
    <path
       fill="none"
       stroke="#000000"
       d="m 940.91,-207.87 -14.168,4.376 Q 923.2,-202.4 893.4,-195.2 l -89.4,21.6 q -29.8,7.2 -32.058,8.074 l -9.032,3.496"
       id="path52" />
  </g>
  <g
     id="node18"
     class="node opt"
     transform="translate(-62.000903,757.8)">
    <title
       id="title53">cs111or112</title>
    <polygon
       fill="#ffffff"
       stroke="#000000"
       points="582,-159.2 589.2,-152 596.4,-159.2 589.2,-166.4 "
       id="polygon53" />
  </g>
  <g
     id="edge39"
     class="edge option"
     transform="translate(-62.000903,757.8)">
    <title
       id="title54">cs111or112-&gt;cs111</title>
    <path
       fill="none"
       stroke="#000000"
       d="m 589.2,-151.44 v 27.78"
       id="path54" />
    <polygon
       fill="#000000"
       stroke="#000000"
       points="585.7,-123.93 592.7,-123.93 589.2,-113.93 "
       id="polygon54" />
  </g>
  <g
     id="edge40"
     class="edge option"
     transform="translate(-62.000903,757.8)">
    <title
       id="title55">cs111or112-&gt;cs112</title>
    <path
       fill="none"
       stroke="#000000"
       d="m 592.81,-155.48 43.21,32.5"
       id="path55" />
    <polygon
       fill="#000000"
       stroke="#000000"
       points="633.57,-120.43 637.78,-126.03 643.67,-117.22 "
       id="polygon55" />
  </g>
  <g
     id="edge41"
     class="edge option"
     transform="translate(-62.000903,757.8)">
    <title
       id="title56">cs111or112or110-&gt;cs110</title>
    <path
       fill="none"
       stroke="#000000"
       d="m 759.56,-152.81 6.44,25.42"
       id="path56" />
    <polygon
       fill="#000000"
       stroke="#000000"
       points="762.56,-126.73 769.34,-128.44 768.4,-117.89 "
       id="polygon56" />
  </g>
  <g
     id="edge42"
     class="edge option"
     transform="translate(-62.000903,757.8)">
    <title
       id="title57">cs111or112or110-&gt;cs111</title>
    <path
       fill="none"
       stroke="#000000"
       d="m 753.15,-156.49 -118.74,40.86"
       id="path57" />
    <polygon
       fill="#000000"
       stroke="#000000"
       points="633.34,-118.97 635.87,-112.45 625.28,-112.09 "
       id="polygon57" />
  </g>
  <g
     id="edge43"
     class="edge option"
     transform="translate(-62.000903,757.8)">
    <title
       id="title58">cs111or112or110-&gt;cs112</title>
    <path
       fill="none"
       stroke="#000000"
       d="m 754.55,-155.48 -43.72,32.5"
       id="path58" />
    <polygon
       fill="#000000"
       stroke="#000000"
       points="709.01,-125.99 713.19,-120.37 703.07,-117.21 "
       id="polygon58" />
  </g>
  <g
     id="edge44"
     class="edge option"
     transform="translate(-62.000903,757.8)">
    <title
       id="title59">any100-&gt;cs110</title>
    <path
       fill="none"
       stroke="#000000"
       d="m 788.84,-152.81 -6.44,25.42"
       id="path59" />
    <polygon
       fill="#000000"
       stroke="#000000"
       points="779.06,-128.44 785.84,-126.73 780,-117.89 "
       id="polygon59" />
  </g>
  <g
     id="edge45"
     class="edge option"
     transform="translate(-62.000903,757.8)">
    <title
       id="title60">any100-&gt;cs111</title>
    <path
       fill="none"
       stroke="#000000"
       d="m 785.49,-156.37 -9.032,3.496 q -2.258,0.874 -30.222,8.28 L 634.38,-114.97"
       id="path60" />
    <polygon
       fill="#000000"
       stroke="#000000"
       points="633.73,-118.44 635.9,-111.78 625.31,-112.02 "
       id="polygon60" />
  </g>
  <g
     id="edge46"
     class="edge option"
     transform="translate(-62.000903,757.8)">
    <title
       id="title61">any100-&gt;cs112</title>
    <path
       fill="none"
       stroke="#000000"
       d="m 785.76,-155.8 -70.92,38.3"
       id="path61" />
    <polygon
       fill="#000000"
       stroke="#000000"
       points="713.27,-120.62 716.59,-114.46 706.13,-112.79 "
       id="polygon61" />
  </g>
  <g
     id="edge47"
     class="edge option"
     transform="translate(-62.000903,757.8)">
    <title
       id="title62">any100-&gt;cs121</title>
    <path
       fill="none"
       stroke="#000000"
       d="m 794.07,-155.48 52.15,36.62"
       id="path62" />
    <polygon
       fill="#000000"
       stroke="#000000"
       points="843.99,-116.15 848.02,-121.88 854.19,-113.26 "
       id="polygon62" />
  </g>
  <g
     id="edge48"
     class="edge"
     transform="translate(-62.000903,757.8)">
    <title
       id="title63">cs230-&gt;cs111or112</title>
    <path
       fill="none"
       stroke="#000000"
       d="m 589.2,-201.96 v 23.59"
       id="path63" />
    <polygon
       fill="#000000"
       stroke="#000000"
       points="585.7,-178.46 592.7,-178.46 589.2,-168.46 "
       id="polygon63" />
  </g>
  <g
     id="node22"
     class="node core"
     transform="translate(-62.000903,757.8)">
    <title
       id="title64">cs231</title>
    <polygon
       fill="#ffffff"
       stroke="#000000"
       points="362.57,-439.05 362.57,-403.05 419.82,-403.05 419.82,-439.05 "
       id="polygon64" />
    <text
       text-anchor="middle"
       x="391.20001"
       y="-426.95001"
       font-family="Times, serif"
       font-size="8px"
       id="text64">CS 231</text>
    <text
       text-anchor="middle"
       x="391.20001"
       y="-417.95001"
       font-family="Times, serif"
       font-size="8px"
       id="text65">Fundamental</text>
    <text
       text-anchor="middle"
       x="391.20001"
       y="-408.95001"
       font-family="Times, serif"
       font-size="8px"
       id="text66">Algorithms</text>
  </g>
  <g
     id="edge49"
     class="edge"
     transform="translate(-62.000903,757.8)">
    <title
       id="title66">cs231-&gt;math225</title>
    <path
       fill="none"
       stroke="#000000"
       d="m 392.03,-402.75 3.8,78.61"
       id="path66" />
    <polygon
       fill="#000000"
       stroke="#000000"
       points="392.32,-324.13 399.31,-324.47 396.3,-314.31 "
       id="polygon66" />
  </g>
  <g
     id="node23"
     class="node core"
     transform="translate(-62.000903,757.8)">
    <title
       id="title68">cs235</title>
    <polygon
       fill="#ffffff"
       stroke="#000000"
       points="199.95,-439.05 199.95,-403.05 256.45,-403.05 256.45,-439.05 "
       id="polygon68" />
    <text
       text-anchor="middle"
       x="228.2"
       y="-426.95001"
       font-family="Times, serif"
       font-size="8px"
       id="text68">CS 235</text>
    <text
       text-anchor="middle"
       x="228.2"
       y="-417.95001"
       font-family="Times, serif"
       font-size="8px"
       id="text69">Theory of</text>
    <text
       text-anchor="middle"
       x="228.2"
       y="-408.95001"
       font-family="Times, serif"
       font-size="8px"
       id="text70">Computation</text>
  </g>
  <g
     id="edge51"
     class="edge"
     transform="translate(-62.000903,757.8)">
    <title
       id="title70">cs235-&gt;math225</title>
    <path
       fill="none"
       stroke="#000000"
       d="m 256.89,-404.47 61.048,33.136 q 15.262,8.284 23.22,16.664 l 31.832,33.52"
       id="path70" />
    <polygon
       fill="#000000"
       stroke="#000000"
       points="370.25,-318.95 375.33,-323.77 379.68,-314.1 "
       id="polygon70" />
  </g>
  <g
     id="node24"
     class="node core"
     transform="translate(-62.000903,757.8)">
    <title
       id="title71">cs240</title>
    <polygon
       fill="#ffffff"
       stroke="#000000"
       points="589.95,-443.05 589.95,-399.05 646.45,-399.05 646.45,-443.05 "
       id="polygon71" />
    <text
       text-anchor="middle"
       x="618.20001"
       y="-431.45001"
       font-family="Times, serif"
       font-size="8px"
       id="text71">CS 240</text>
    <text
       text-anchor="middle"
       x="618.20001"
       y="-422.45001"
       font-family="Times, serif"
       font-size="8px"
       id="text72">Foundations</text>
    <text
       text-anchor="middle"
       x="618.20001"
       y="-413.45001"
       font-family="Times, serif"
       font-size="8px"
       id="text73">of Computer</text>
    <text
       text-anchor="middle"
       x="618.20001"
       y="-404.45001"
       font-family="Times, serif"
       font-size="8px"
       id="text74">Systems</text>
  </g>
  <g
     id="node28"
     class="node elective"
     transform="translate(-62.000903,757.8)">
    <title
       id="title76">cs232</title>
    <polygon
       fill="#ffffff"
       stroke="#000000"
       points="112.07,-515.05 112.07,-479.05 166.32,-479.05 166.32,-515.05 "
       id="polygon76" />
    <text
       text-anchor="middle"
       x="139.2"
       y="-502.95001"
       font-family="Times, serif"
       font-size="8px"
       id="text77">CS 232</text>
    <text
       text-anchor="middle"
       x="139.2"
       y="-493.95001"
       font-family="Times, serif"
       font-size="8px"
       id="text78">Artificial</text>
    <text
       text-anchor="middle"
       x="139.2"
       y="-484.95001"
       font-family="Times, serif"
       font-size="8px"
       id="text79">Intelligence</text>
  </g>
  <g
     id="node29"
     class="node elective fall"
     transform="translate(-62.000903,757.8)">
    <title
       id="title79">cs233</title>
    <polygon
       fill="#ffffff"
       stroke="#000000"
       points="438.2,-439.05 438.2,-403.05 550.2,-403.05 550.2,-439.05 "
       id="polygon79" />
    <text
       text-anchor="middle"
       x="494.20001"
       y="-426.95001"
       font-family="Times, serif"
       font-size="8px"
       id="text80">CS 233</text>
    <text
       text-anchor="middle"
       x="494.20001"
       y="-417.95001"
       font-family="Times, serif"
       font-size="8px"
       id="text81">Computational Social Choice:</text>
    <text
       text-anchor="middle"
       x="494.20001"
       y="-408.95001"
       font-family="Times, serif"
       font-size="8px"
       id="text82">Theory &amp; Applications</text>
  </g>
  <g
     id="edge50"
     class="edge"
     transform="translate(-62.000903,757.8)">
    <title
       id="title82">cs233-&gt;math225</title>
    <path
       fill="none"
       stroke="#000000"
       d="m 480.71,-402.75 -63.09,80.91"
       id="path82" />
    <polygon
       fill="#000000"
       stroke="#000000"
       points="414.89,-324.03 420.41,-319.73 411.5,-313.99 "
       id="polygon82" />
  </g>
  <g
     id="node30"
     class="node elective notoffered"
     transform="translate(-62.000903,757.8)">
    <title
       id="title83">cs234</title>
    <polygon
       fill="#ffffff"
       stroke="#000000"
       points="184.45,-515.05 184.45,-479.05 255.95,-479.05 255.95,-515.05 "
       id="polygon83" />
    <text
       text-anchor="middle"
       x="220.2"
       y="-502.95001"
       font-family="Times, serif"
       font-size="8px"
       id="text83">CS 234</text>
    <text
       text-anchor="middle"
       x="220.2"
       y="-493.95001"
       font-family="Times, serif"
       font-size="8px"
       id="text84">Data, Analytics,</text>
    <text
       text-anchor="middle"
       x="220.2"
       y="-484.95001"
       font-family="Times, serif"
       font-size="8px"
       id="text85">and Visualization</text>
  </g>
  <g
     id="node31"
     class="node elective fall"
     transform="translate(-62.000903,757.8)">
    <title
       id="title85">cs236</title>
    <polygon
       fill="#ffffff"
       stroke="#000000"
       points="274.45,-515.05 274.45,-479.05 351.95,-479.05 351.95,-515.05 "
       id="polygon85" />
    <text
       text-anchor="middle"
       x="313.20001"
       y="-502.95001"
       font-family="Times, serif"
       font-size="8px"
       id="text86">CS 236</text>
    <text
       text-anchor="middle"
       x="313.20001"
       y="-493.95001"
       font-family="Times, serif"
       font-size="8px"
       id="text87">Spatial-Temporal</text>
    <text
       text-anchor="middle"
       x="313.20001"
       y="-484.95001"
       font-family="Times, serif"
       font-size="8px"
       id="text88">Mechanism Design</text>
  </g>
  <g
     id="node32"
     class="node elective fall"
     transform="translate(-62.000903,757.8)">
    <title
       id="title88">cs242</title>
    <polygon
       fill="#ffffff"
       stroke="#000000"
       points="370.2,-515.05 370.2,-479.05 424.2,-479.05 424.2,-515.05 "
       id="polygon88" />
    <text
       text-anchor="middle"
       x="397.20001"
       y="-502.95001"
       font-family="Times, serif"
       font-size="8px"
       id="text89">CS 242</text>
    <text
       text-anchor="middle"
       x="397.20001"
       y="-493.95001"
       font-family="Times, serif"
       font-size="8px"
       id="text90">Computer</text>
    <text
       text-anchor="middle"
       x="397.20001"
       y="-484.95001"
       font-family="Times, serif"
       font-size="8px"
       id="text91">Networks</text>
  </g>
  <g
     id="node33"
     class="node elective fall"
     transform="translate(-62.000903,757.8)">
    <title
       id="title91">cs243</title>
    <polygon
       fill="#ffffff"
       stroke="#000000"
       points="441.95,-515.05 441.95,-479.05 498.45,-479.05 498.45,-515.05 "
       id="polygon91" />
    <text
       text-anchor="middle"
       x="470.20001"
       y="-498.45001"
       font-family="Times, serif"
       font-size="8px"
       id="text92">CS 243</text>
    <text
       text-anchor="middle"
       x="470.20001"
       y="-489.45001"
       font-family="Times, serif"
       font-size="8px"
       id="text93">Spatial Data</text>
  </g>
  <g
     id="node34"
     class="node elective"
     transform="translate(-62.000903,757.8)">
    <title
       id="title93">cs244</title>
    <polygon
       fill="#ffffff"
       stroke="#000000"
       points="516.2,-515.05 516.2,-479.05 570.2,-479.05 570.2,-515.05 "
       id="polygon93" />
    <text
       text-anchor="middle"
       x="543.20001"
       y="-502.95001"
       font-family="Times, serif"
       font-size="8px"
       id="text94">CS 244</text>
    <text
       text-anchor="middle"
       x="543.20001"
       y="-493.95001"
       font-family="Times, serif"
       font-size="8px"
       id="text95">Machine</text>
    <text
       text-anchor="middle"
       x="543.20001"
       y="-484.95001"
       font-family="Times, serif"
       font-size="8px"
       id="text96">Learning</text>
  </g>
  <g
     id="node35"
     class="node elective spring"
     transform="translate(-62.000903,757.8)">
    <title
       id="title96">cs251</title>
    <polygon
       fill="#ffffff"
       stroke="#000000"
       points="587.83,-515.05 587.83,-479.05 646.58,-479.05 646.58,-515.05 "
       id="polygon96" />
    <text
       text-anchor="middle"
       x="617.20001"
       y="-502.95001"
       font-family="Times, serif"
       font-size="8px"
       id="text97">CS 251</text>
    <text
       text-anchor="middle"
       x="617.20001"
       y="-493.95001"
       font-family="Times, serif"
       font-size="8px"
       id="text98">Programming</text>
    <text
       text-anchor="middle"
       x="617.20001"
       y="-484.95001"
       font-family="Times, serif"
       font-size="8px"
       id="text99">Languages</text>
  </g>
  <g
     id="node36"
     class="node elective"
     transform="translate(-62.000903,757.8)">
    <title
       id="title99">cs304</title>
    <polygon
       fill="#ffffff"
       stroke="#000000"
       points="470.2,-605.3 470.2,-561.3 524.2,-561.3 524.2,-605.3 "
       id="polygon99" />
    <text
       text-anchor="middle"
       x="497.20001"
       y="-593.70001"
       font-family="Times, serif"
       font-size="8px"
       id="text100">CS 304</text>
    <text
       text-anchor="middle"
       x="497.20001"
       y="-584.70001"
       font-family="Times, serif"
       font-size="8px"
       id="text101">Databases</text>
    <text
       text-anchor="middle"
       x="497.20001"
       y="-575.70001"
       font-family="Times, serif"
       font-size="8px"
       id="text102">with Web</text>
    <text
       text-anchor="middle"
       x="497.20001"
       y="-566.70001"
       font-family="Times, serif"
       font-size="8px"
       id="text103">Interfaces</text>
  </g>
  <g
     id="node55"
     class="node elective spring"
     transform="translate(-62.000903,757.8)">
    <title
       id="title103">cs343</title>
    <polygon
       fill="#ffffff"
       stroke="#000000"
       points="547.2,-601.3 547.2,-565.3 601.2,-565.3 601.2,-601.3 "
       id="polygon103" />
    <text
       text-anchor="middle"
       x="574.20001"
       y="-589.20001"
       font-family="Times, serif"
       font-size="8px"
       id="text104">CS 343</text>
    <text
       text-anchor="middle"
       x="574.20001"
       y="-580.20001"
       font-family="Times, serif"
       font-size="8px"
       id="text105">Distributed</text>
    <text
       text-anchor="middle"
       x="574.20001"
       y="-571.20001"
       font-family="Times, serif"
       font-size="8px"
       id="text106">Computing</text>
  </g>
  <g
     id="node4"
     class="node math required"
     transform="translate(3.999097,757.8)">
    <title
       id="title11">math225</title>
    <polygon
       fill="#ffffff"
       stroke="#000000"
       points="361.82,-276.65 432.57,-276.65 432.57,-312.65 361.82,-312.65 "
       id="polygon11" />
    <text
       text-anchor="middle"
       x="397.20001"
       y="-300.54999"
       font-family="Times, serif"
       font-size="8px"
       id="text12">Math 225</text>
    <text
       text-anchor="middle"
       x="397.20001"
       y="-291.54999"
       font-family="Times, serif"
       font-size="8px"
       id="text13">Combinatorics &amp;</text>
    <text
       text-anchor="middle"
       x="397.20001"
       y="-282.54999"
       font-family="Times, serif"
       font-size="8px"
       id="text14">Graph Theory</text>
  </g>
  <g
     id="node5"
     class="node legend-top"
     transform="translate(-62.000903,757.8)">
    <title
       id="title14">legend_top</title>
    <polygon
       fill="#ffffff"
       stroke="#000000"
       points="66,-276.65 188.4,-276.65 188.4,-312.65 66,-312.65 "
       id="polygon14" />
  </g>
  <g
     id="node8"
     class="node math"
     transform="translate(3.999097,757.8)">
    <title
       id="title16">math205</title>
    <polygon
       fill="#ffffff"
       stroke="#000000"
       points="140.45,-276.65 199.95,-276.65 199.95,-312.65 140.45,-312.65 "
       id="polygon16" />
    <text
       text-anchor="middle"
       x="170.2"
       y="-300.54999"
       font-family="Times, serif"
       font-size="8px"
       id="text16">Math 205</text>
    <text
       text-anchor="middle"
       x="170.2"
       y="-291.54999"
       font-family="Times, serif"
       font-size="8px"
       id="text17">Multivariable</text>
    <text
       text-anchor="middle"
       x="170.2"
       y="-282.54999"
       font-family="Times, serif"
       font-size="8px"
       id="text18">Calculus</text>
  </g>
  <g
     id="node26"
     class="node math"
     transform="translate(3.999097,757.8)">
    <title
       id="title19">math206</title>
    <polygon
       fill="#ffffff"
       stroke="#000000"
       points="218.2,-276.65 272.2,-276.65 272.2,-312.65 218.2,-312.65 "
       id="polygon19" />
    <text
       text-anchor="middle"
       x="245.2"
       y="-300.54999"
       font-family="Times, serif"
       font-size="8px"
       id="text19">Math 206</text>
    <text
       text-anchor="middle"
       x="245.2"
       y="-291.54999"
       font-family="Times, serif"
       font-size="8px"
       id="text20">Linear</text>
    <text
       text-anchor="middle"
       x="245.2"
       y="-282.54999"
       font-family="Times, serif"
       font-size="8px"
       id="text21">Algebra</text>
  </g>
  <g
     id="node37"
     class="node opt"
     transform="translate(3.999097,757.8)">
    <title
       id="title67">math225or206or220</title>
    <polygon
       fill="#ffffff"
       stroke="#000000"
       points="317.2,-348.65 324.4,-355.85 317.2,-363.05 310,-355.85 "
       id="polygon67" />
  </g>
  <g
     id="node27"
     class="node math"
     transform="translate(3.999097,757.8)">
    <title
       id="title74">math220</title>
    <polygon
       fill="#ffffff"
       stroke="#000000"
       points="290.2,-276.65 344.2,-276.65 344.2,-312.65 290.2,-312.65 "
       id="polygon74" />
    <text
       text-anchor="middle"
       x="317.20001"
       y="-296.04999"
       font-family="Times, serif"
       font-size="8px"
       id="text75">Math 220</text>
    <text
       text-anchor="middle"
       x="317.20001"
       y="-287.04999"
       font-family="Times, serif"
       font-size="8px"
       id="text76">Probability</text>
  </g>
  <g
     id="edge54"
     class="edge option"
     transform="translate(3.999097,757.8)">
    <title
       id="title106">math225or206or220-&gt;math225</title>
    <path
       fill="none"
       stroke="#000000"
       d="m 321.06,-351.99 43.49,32.18"
       id="path106" />
    <polygon
       fill="#000000"
       stroke="#000000"
       points="362.33,-317.1 366.49,-322.73 372.45,-313.97 "
       id="polygon106" />
  </g>
  <g
     id="edge55"
     class="edge option"
     transform="translate(3.999097,757.8)">
    <title
       id="title107">math225or206or220-&gt;math206</title>
    <path
       fill="none"
       stroke="#000000"
       d="m 313.73,-351.99 -38.72,31.83"
       id="path107" />
    <polygon
       fill="#000000"
       stroke="#000000"
       points="273.05,-323.08 277.5,-317.68 267.55,-314.03 "
       id="polygon107" />
  </g>
  <g
     id="edge56"
     class="edge option"
     transform="translate(3.999097,757.8)">
    <title
       id="title108">math225or206or220-&gt;math220</title>
    <path
       fill="none"
       stroke="#000000"
       d="m 317.2,-348.06 v 23.78"
       id="path108" />
    <polygon
       fill="#000000"
       stroke="#000000"
       points="313.7,-324.46 320.7,-324.46 317.2,-314.46 "
       id="polygon108" />
  </g>
  <g
     id="node38"
     class="node opt"
     transform="translate(3.999097,757.8)">
    <title
       id="title109">math225or205or206</title>
    <polygon
       fill="#ffffff"
       stroke="#000000"
       points="207.2,-348.65 214.4,-355.85 207.2,-363.05 200,-355.85 "
       id="polygon109" />
  </g>
  <g
     id="edge57"
     class="edge option"
     transform="translate(3.999097,757.8)">
    <title
       id="title110">math225or205or206-&gt;math225</title>
    <path
       fill="none"
       stroke="#000000"
       d="m 212.4,-353.35 138.69,40.59"
       id="path110" />
    <polygon
       fill="#000000"
       stroke="#000000"
       points="349.65,-309.54 351.78,-316.21 360.24,-309.83 "
       id="polygon110" />
  </g>
  <g
     id="edge58"
     class="edge option"
     transform="translate(3.999097,757.8)">
    <title
       id="title111">math225or205or206-&gt;math205</title>
    <path
       fill="none"
       stroke="#000000"
       d="m 204.77,-350.97 -17.58,28.13"
       id="path111" />
    <polygon
       fill="#000000"
       stroke="#000000"
       points="184.23,-324.7 190.17,-320.99 181.9,-314.37 "
       id="polygon111" />
  </g>
  <g
     id="edge59"
     class="edge option"
     transform="translate(3.999097,757.8)">
    <title
       id="title112">math225or205or206-&gt;math206</title>
    <path
       fill="none"
       stroke="#000000"
       d="m 209.69,-350.97 18.27,28.47"
       id="path112" />
    <polygon
       fill="#000000"
       stroke="#000000"
       points="224.85,-320.88 230.74,-324.66 233.19,-314.36 "
       id="polygon112" />
  </g>
  <g
     id="node39"
     class="node elective fall"
     transform="translate(-62.000903,757.8)">
    <title
       id="title113">cs307</title>
    <polygon
       fill="#ffffff"
       stroke="#000000"
       points="112.2,-681.3 112.2,-645.3 166.2,-645.3 166.2,-681.3 "
       id="polygon113" />
    <text
       text-anchor="middle"
       x="139.2"
       y="-669.20001"
       font-family="Times, serif"
       font-size="8px"
       id="text113">CS 307</text>
    <text
       text-anchor="middle"
       x="139.2"
       y="-660.20001"
       font-family="Times, serif"
       font-size="8px"
       id="text114">Computer</text>
    <text
       text-anchor="middle"
       x="139.2"
       y="-651.20001"
       font-family="Times, serif"
       font-size="8px"
       id="text115">Graphics</text>
  </g>
  <g
     id="node40"
     class="node elective notoffered"
     transform="translate(-62.000903,757.8)">
    <title
       id="title115">cs313</title>
    <polygon
       fill="#ffffff"
       stroke="#000000"
       points="389.95,-601.3 389.95,-565.3 452.45,-565.3 452.45,-601.3 "
       id="polygon115" />
    <text
       text-anchor="middle"
       x="421.20001"
       y="-589.20001"
       font-family="Times, serif"
       font-size="8px"
       id="text116">CS 313</text>
    <text
       text-anchor="middle"
       x="421.20001"
       y="-580.20001"
       font-family="Times, serif"
       font-size="8px"
       id="text117">Computational</text>
    <text
       text-anchor="middle"
       x="421.20001"
       y="-571.20001"
       font-family="Times, serif"
       font-size="8px"
       id="text118">Biology</text>
  </g>
  <g
     id="node41"
     class="node elective spring"
     transform="translate(-62.000903,757.8)">
    <title
       id="title118">cs315</title>
    <polygon
       fill="#ffffff"
       stroke="#000000"
       points="184.7,-685.3 184.7,-641.3 245.7,-641.3 245.7,-685.3 "
       id="polygon118" />
    <text
       text-anchor="middle"
       x="215.2"
       y="-673.70001"
       font-family="Times, serif"
       font-size="8px"
       id="text119">CS 315</text>
    <text
       text-anchor="middle"
       x="215.2"
       y="-664.70001"
       font-family="Times, serif"
       font-size="8px"
       id="text120">Data and Text</text>
    <text
       text-anchor="middle"
       x="215.2"
       y="-655.70001"
       font-family="Times, serif"
       font-size="8px"
       id="text121">Mining for</text>
    <text
       text-anchor="middle"
       x="215.2"
       y="-646.70001"
       font-family="Times, serif"
       font-size="8px"
       id="text122">the Web</text>
  </g>
  <g
     id="node42"
     class="node elective fall"
     transform="translate(-62.000903,757.8)">
    <title
       id="title122">cs317</title>
    <polygon
       fill="#ffffff"
       stroke="#000000"
       points="264.2,-681.3 264.2,-645.3 322.2,-645.3 322.2,-681.3 "
       id="polygon122" />
    <text
       text-anchor="middle"
       x="293.20001"
       y="-669.20001"
       font-family="Times, serif"
       font-size="8px"
       id="text123">CS 317</text>
    <text
       text-anchor="middle"
       x="293.20001"
       y="-660.20001"
       font-family="Times, serif"
       font-size="8px"
       id="text124">Mobile App</text>
    <text
       text-anchor="middle"
       x="293.20001"
       y="-651.20001"
       font-family="Times, serif"
       font-size="8px"
       id="text125">Development</text>
  </g>
  <g
     id="node43"
     class="node opt"
     transform="translate(-62.000903,757.8)">
    <title
       id="title125">cs230or220</title>
    <polygon
       fill="#ffffff"
       stroke="#000000"
       points="1074,-355.85 1081.2,-348.65 1088.4,-355.85 1081.2,-363.05 "
       id="polygon125" />
  </g>
  <g
     id="edge67"
     class="edge option"
     transform="translate(-62.000903,757.8)">
    <title
       id="title126">cs230or220-&gt;cs220</title>
    <path
       fill="none"
       stroke="#000000"
       d="m 1078.57,-350.65 -37.1,59.2 q -9.27,14.8 -15.11,20.778 l -23.37,23.912"
       id="path126" />
    <polygon
       fill="#000000"
       stroke="#000000"
       points="1000.83,-249.56 1005.84,-244.67 996.34,-239.96 "
       id="polygon126" />
  </g>
  <g
     id="edge68"
     class="edge option"
     transform="translate(-62.000903,757.8)">
    <title
       id="title127">cs230or220-&gt;cs230</title>
    <path
       fill="none"
       stroke="#000000"
       d="m 1075.68,-353.56 -353.45,82.34"
       id="path127" />
    <polygon
       fill="#000000"
       stroke="#000000"
       points="721.62,-274.67 723.21,-267.85 712.67,-268.99 "
       id="polygon127" />
  </g>
  <g
     id="node44"
     class="node opt"
     transform="translate(-62.000903,757.8)">
    <title
       id="title128">cs230or220or221</title>
    <polygon
       fill="#ffffff"
       stroke="#000000"
       points="1084,-294.65 1091.2,-287.45 1098.4,-294.65 1091.2,-301.85 "
       id="polygon128" />
  </g>
  <g
     id="edge69"
     class="edge option"
     transform="translate(-62.000903,757.8)">
    <title
       id="title129">cs230or220or221-&gt;cs221</title>
    <path
       fill="none"
       stroke="#000000"
       d="m 1091.2,-286.98 v 37.04"
       id="path129" />
    <polygon
       fill="#000000"
       stroke="#000000"
       points="1087.7,-250.13 1094.7,-250.13 1091.2,-240.13 "
       id="polygon129" />
  </g>
  <g
     id="edge70"
     class="edge option"
     transform="translate(-62.000903,757.8)">
    <title
       id="title130">cs230or220or221-&gt;cs220</title>
    <path
       fill="none"
       stroke="#000000"
       d="m 1087.54,-290.69 -13.87,11.232 q -3.47,2.808 -8.27,4.408 l -14.4,4.8 q -4.8,1.6 -11.55,6.292 l -27.01,18.768"
       id="path130" />
    <polygon
       fill="#000000"
       stroke="#000000"
       points="1010.59,-248.17 1014.59,-242.42 1004.38,-239.59 "
       id="polygon130" />
  </g>
  <g
     id="edge71"
     class="edge option"
     transform="translate(-62.000903,757.8)">
    <title
       id="title131">cs230or220or221-&gt;cs230</title>
    <path
       fill="none"
       stroke="#000000"
       d="m 1086.17,-292.2 -43.18,12.44 q -10.79,3.11 -72.706,4.654 l -247.664,6.176"
       id="path131" />
    <polygon
       fill="#000000"
       stroke="#000000"
       points="722.62,-272.44 722.8,-265.44 712.71,-268.69 "
       id="polygon131" />
  </g>
  <g
     id="node45"
     class="node elective spring"
     transform="translate(-62.000903,757.8)">
    <title
       id="title132">cs320</title>
    <polygon
       fill="#ffffff"
       stroke="#000000"
       points="1059.2,-443.05 1059.2,-399.05 1113.2,-399.05 1113.2,-443.05 "
       id="polygon132" />
    <text
       text-anchor="middle"
       x="1086.2"
       y="-431.45001"
       font-family="Times, serif"
       font-size="8px"
       id="text132">CS 320</text>
    <text
       text-anchor="middle"
       x="1086.2"
       y="-422.45001"
       font-family="Times, serif"
       font-size="8px"
       id="text133">Tangible</text>
    <text
       text-anchor="middle"
       x="1086.2"
       y="-413.45001"
       font-family="Times, serif"
       font-size="8px"
       id="text134">User</text>
    <text
       text-anchor="middle"
       x="1086.2"
       y="-404.45001"
       font-family="Times, serif"
       font-size="8px"
       id="text135">Interfaces</text>
  </g>
  <g
     id="edge66"
     class="edge options"
     transform="translate(-62.000903,757.8)">
    <title
       id="title135">cs320-&gt;cs230or220</title>
    <path
       fill="none"
       stroke="#000000"
       d="m 1084.51,-398.65 -2.81,35.52"
       id="path135" />
  </g>
  <g
     id="node46"
     class="node elective spring"
     transform="translate(-62.000903,757.8)">
    <title
       id="title136">cs321</title>
    <polygon
       fill="#ffffff"
       stroke="#000000"
       points="877.2,-439.05 877.2,-403.05 931.2,-403.05 931.2,-439.05 "
       id="polygon136" />
    <text
       text-anchor="middle"
       x="904.20001"
       y="-426.95001"
       font-family="Times, serif"
       font-size="8px"
       id="text136">CS 321</text>
    <text
       text-anchor="middle"
       x="904.20001"
       y="-417.95001"
       font-family="Times, serif"
       font-size="8px"
       id="text137">Extended</text>
    <text
       text-anchor="middle"
       x="904.20001"
       y="-408.95001"
       font-family="Times, serif"
       font-size="8px"
       id="text138">Reality</text>
  </g>
  <g
     id="edge72"
     class="edge options"
     transform="translate(-62.000903,757.8)">
    <title
       id="title138">cs321-&gt;cs230or220or221</title>
    <path
       fill="none"
       stroke="#000000"
       d="m 920.94,-402.85 15.408,15.84 q 3.852,3.96 33.18,20.936 l 117.312,67.904"
       id="path138" />
  </g>
  <g
     id="node47"
     class="node elective notoffered"
     transform="translate(-62.000903,757.8)">
    <title
       id="title139">cs323</title>
    <polygon
       fill="#ffffff"
       stroke="#000000"
       points="949.2,-439.05 949.2,-403.05 1003.2,-403.05 1003.2,-439.05 "
       id="polygon139" />
    <text
       text-anchor="middle"
       x="976.20001"
       y="-426.95001"
       font-family="Times, serif"
       font-size="8px"
       id="text139">CS 323</text>
    <text
       text-anchor="middle"
       x="976.20001"
       y="-417.95001"
       font-family="Times, serif"
       font-size="8px"
       id="text140">Social</text>
    <text
       text-anchor="middle"
       x="976.20001"
       y="-408.95001"
       font-family="Times, serif"
       font-size="8px"
       id="text141">Computing</text>
  </g>
  <g
     id="edge73"
     class="edge options"
     transform="translate(-62.000903,757.8)">
    <title
       id="title141">cs323-&gt;cs230or220</title>
    <path
       fill="none"
       stroke="#000000"
       d="m 1003.51,-403.61 73.54,44.26"
       id="path141" />
  </g>
  <g
     id="node48"
     class="node elective fall"
     transform="translate(-62.000903,757.8)">
    <title
       id="title142">cs325</title>
    <polygon
       fill="#ffffff"
       stroke="#000000"
       points="340.45,-681.3 340.45,-645.3 399.95,-645.3 399.95,-681.3 "
       id="polygon142" />
    <text
       text-anchor="middle"
       x="370.20001"
       y="-669.20001"
       font-family="Times, serif"
       font-size="8px"
       id="text142">CS 325</text>
    <text
       text-anchor="middle"
       x="370.20001"
       y="-660.20001"
       font-family="Times, serif"
       font-size="8px"
       id="text143">Designing for</text>
    <text
       text-anchor="middle"
       x="370.20001"
       y="-651.20001"
       font-family="Times, serif"
       font-size="8px"
       id="text144">Accessibility</text>
  </g>
  <g
     id="node49"
     class="node elective spring"
     transform="translate(-62.000903,757.8)">
    <title
       id="title144">cs331</title>
    <polygon
       fill="#ffffff"
       stroke="#000000"
       points="628.2,-601.3 628.2,-565.3 682.2,-565.3 682.2,-601.3 "
       id="polygon144" />
    <text
       text-anchor="middle"
       x="655.20001"
       y="-589.20001"
       font-family="Times, serif"
       font-size="8px"
       id="text145">CS 331</text>
    <text
       text-anchor="middle"
       x="655.20001"
       y="-580.20001"
       font-family="Times, serif"
       font-size="8px"
       id="text146">Advanced</text>
    <text
       text-anchor="middle"
       x="655.20001"
       y="-571.20001"
       font-family="Times, serif"
       font-size="8px"
       id="text147">Algorithms</text>
  </g>
  <g
     id="edge61"
     class="edge"
     transform="translate(-62.000903,757.8)">
    <title
       id="title147">cs331-&gt;cs231</title>
    <path
       fill="none"
       stroke="#000000"
       d="m 657.52,-565.1 2.144,15.84 c 0.35733,2.64 0.536,8.37667 0.536,17.21 v 39.75 c 0,15.38546 -7.43818,19.7746 -45.838,25.27008 L 431.01,-440.79"
       id="path147"
       sodipodi:nodetypes="cssssc" />
    <polygon
       fill="#000000"
       stroke="#000000"
       points="430.29,-444.22 432.02,-437.43 421.47,-438.34 "
       id="polygon147" />
  </g>
  <g
     id="node50"
     class="node elective fall"
     transform="translate(-62.000903,757.8)">
    <title
       id="title148">cs333</title>
    <polygon
       fill="#ffffff"
       stroke="#000000"
       points="226.32,-601.3 226.32,-565.3 300.07,-565.3 300.07,-601.3 "
       id="polygon148" />
    <text
       text-anchor="middle"
       x="263.20001"
       y="-589.20001"
       font-family="Times, serif"
       font-size="8px"
       id="text148">CS 333</text>
    <text
       text-anchor="middle"
       x="263.20001"
       y="-580.20001"
       font-family="Times, serif"
       font-size="8px"
       id="text149">Natural Language</text>
    <text
       text-anchor="middle"
       x="263.20001"
       y="-571.20001"
       font-family="Times, serif"
       font-size="8px"
       id="text150">Processing</text>
  </g>
  <g
     id="edge53"
     class="edge options"
     transform="translate(-62.000903,757.8)">
    <title
       id="title150">cs333-&gt;math225or206or220</title>
    <path
       fill="none"
       stroke="#000000"
       d="m 235.64,-564.93 -14.752,9.304 c -2.45867,1.55067 -11.488,2.85933 -27.088,3.926 l -70.2,4.8 c -15.6,1.06667 -23.4,12.41667 -23.4,34.05 v 97.35 c 0,21.63333 13.96139,35.34409 42.24,37.55 0,0 216.95761,7.03378 237.16,18.5"
       id="path150"
       sodipodi:nodetypes="cssssssc" />
  </g>
  <g
     id="node56"
     class="node elective spring"
     transform="translate(-62.000903,757.8)">
    <title
       id="title151">cs344</title>
    <polygon
       fill="#ffffff"
       stroke="#000000"
       points="318.2,-601.3 318.2,-565.3 372.2,-565.3 372.2,-601.3 "
       id="polygon151" />
    <text
       text-anchor="middle"
       x="345.20001"
       y="-589.20001"
       font-family="Times, serif"
       font-size="8px"
       id="text151">CS 344</text>
    <text
       text-anchor="middle"
       x="345.20001"
       y="-580.20001"
       font-family="Times, serif"
       font-size="8px"
       id="text152">Deep</text>
    <text
       text-anchor="middle"
       x="345.20001"
       y="-571.20001"
       font-family="Times, serif"
       font-size="8px"
       id="text153">Learning</text>
  </g>
  <g
     id="node51"
     class="node elective fall"
     transform="translate(-62.000903,757.8)">
    <title
       id="title153">cs334</title>
    <polygon
       fill="#ffffff"
       stroke="#000000"
       points="418.45,-681.3 418.45,-645.3 501.95,-645.3 501.95,-681.3 "
       id="polygon153" />
    <text
       text-anchor="middle"
       x="460.20001"
       y="-669.20001"
       font-family="Times, serif"
       font-size="8px"
       id="text154">CS 334</text>
    <text
       text-anchor="middle"
       x="460.20001"
       y="-660.20001"
       font-family="Times, serif"
       font-size="8px"
       id="text155">Methods for</text>
    <text
       text-anchor="middle"
       x="460.20001"
       y="-651.20001"
       font-family="Times, serif"
       font-size="8px"
       id="text156">Ethics of Technology</text>
  </g>
  <g
     id="node52"
     class="node elective spring"
     transform="translate(-62.000903,757.8)">
    <title
       id="title156">cs340</title>
    <polygon
       fill="#ffffff"
       stroke="#000000"
       points="687.08,-681.3 687.08,-645.3 759.33,-645.3 759.33,-681.3 "
       id="polygon156" />
    <text
       text-anchor="middle"
       x="723.20001"
       y="-669.20001"
       font-family="Times, serif"
       font-size="8px"
       id="text157">CS 340</text>
    <text
       text-anchor="middle"
       x="723.20001"
       y="-660.20001"
       font-family="Times, serif"
       font-size="8px"
       id="text158">Modeling for</text>
    <text
       text-anchor="middle"
       x="723.20001"
       y="-651.20001"
       font-family="Times, serif"
       font-size="8px"
       id="text159">Compter Systems</text>
  </g>
  <g
     id="edge85"
     class="edge"
     transform="translate(-62.000903,757.8)">
    <title
       id="title159">cs340-&gt;math225</title>
    <path
       fill="none"
       stroke="#000000"
       d="m 723.51,-644.89 0.552,31.672 c 0.092,5.27867 0.138,11.38467 0.138,18.318 v 31.2 c 0,6.93333 -0.2,15.35 -0.6,25.25 l -1.8,44.55 c -0.4,9.9 -4.8,21.25 -13.2,34.05 l -37.8,57.6 c -8.4,12.8 -28.47503,20.20326 -55.538,33.578 l -107.26893,53.01318"
       id="path159"
       sodipodi:nodetypes="cssssssssc" />
    <polygon
       fill="#000000"
       stroke="#000000"
       points="434.38,-308.1 442.75,-314.59 444.97,-307.96 "
       id="polygon159"
       transform="translate(65.982666,-4.4988189)" />
  </g>
  <g
     id="edge84"
     class="edge"
     transform="translate(-62.000903,757.8)">
    <title
       id="title160">cs340-&gt;cs240</title>
    <path
       fill="none"
       stroke="#000000"
       d="m 722.45,-645.06 -5.8,132.808 q -1.45,33.202 -13.19,40.1 l -46.96,27.592"
       id="path160" />
    <polygon
       fill="#000000"
       stroke="#000000"
       points="654.93,-447.69 658.48,-441.66 648.08,-439.61 "
       id="polygon160" />
  </g>
  <g
     id="node53"
     class="node elective fall"
     transform="translate(-62.000903,757.8)">
    <title
       id="title161">cs341</title>
    <polygon
       fill="#ffffff"
       stroke="#000000"
       points="520.2,-681.3 520.2,-645.3 574.2,-645.3 574.2,-681.3 "
       id="polygon161" />
    <text
       text-anchor="middle"
       x="547.20001"
       y="-669.20001"
       font-family="Times, serif"
       font-size="8px"
       id="text161">CS 341</text>
    <text
       text-anchor="middle"
       x="547.20001"
       y="-660.20001"
       font-family="Times, serif"
       font-size="8px"
       id="text162">Operating</text>
    <text
       text-anchor="middle"
       x="547.20001"
       y="-651.20001"
       font-family="Times, serif"
       font-size="8px"
       id="text163">Systems</text>
  </g>
  <g
     id="edge62"
     class="edge"
     transform="translate(-62.000903,757.8)">
    <title
       id="title163">cs341-&gt;cs240</title>
    <path
       fill="none"
       stroke="#000000"
       d="m 574.49,-646.38 6.968,4.064 q 1.742,1.016 23.342,8.216 l 64.8,21.6 q 21.6,7.2 21.6,17.6 v 31.2 q 0,10.4 -5.2,25.25 l -15.6,44.55 q -5.2,14.85 -9.692,20.298 l -17.968,21.792"
       id="path163" />
    <polygon
       fill="#000000"
       stroke="#000000"
       points="640.33,-454.38 645.73,-449.93 636.66,-444.44 "
       id="polygon163" />
  </g>
  <g
     id="node54"
     class="node elective notoffered"
     transform="translate(-62.000903,757.8)">
    <title
       id="title164">cs342</title>
    <polygon
       fill="#ffffff"
       stroke="#000000"
       points="591.83,-681.3 591.83,-645.3 668.58,-645.3 668.58,-681.3 "
       id="polygon164" />
    <text
       text-anchor="middle"
       x="630.20001"
       y="-664.70001"
       font-family="Times, serif"
       font-size="8px"
       id="text164">CS 342</text>
    <text
       text-anchor="middle"
       x="630.20001"
       y="-655.70001"
       font-family="Times, serif"
       font-size="8px"
       id="text165">Computer Security</text>
  </g>
  <g
     id="edge63"
     class="edge"
     transform="translate(-62.000903,757.8)">
    <title
       id="title165">cs342-&gt;cs240</title>
    <path
       fill="none"
       stroke="#000000"
       d="m 654.64,-644.89 44.448,31.672 q 11.112,7.918 11.112,33.168 v 75.75 q 0,25.25 -10.784,31.932 l -43.136,26.728"
       id="path165" />
    <polygon
       fill="#000000"
       stroke="#000000"
       points="654.75,-448.81 658.44,-442.86 648.09,-440.57 "
       id="polygon165" />
  </g>
  <g
     id="edge64"
     class="edge recommended"
     transform="translate(-62.000903,757.8)">
    <title
       id="title166">cs343-&gt;cs231</title>
    <path
       fill="none"
       stroke="#000000"
       d="m 577.22256,-564.93 -21.47416,31.311 c -6.98353,10.18253 -40.69254,0.31997 -45.17472,12.03384 l -1.5163,42.34212 c -1.21798,6.02438 -14.02669,10.09029 -18.79169,12.20112 L 431.14,-440.85"
       id="path166"
       sodipodi:nodetypes="csccsc" />
    <polygon
       fill="#000000"
       stroke="#000000"
       points="430.27,-444.24 432.02,-437.47 421.47,-438.35 "
       id="polygon166" />
  </g>
  <g
     id="edge65"
     class="edge recommended"
     transform="translate(-62.000903,757.8)">
    <title
       id="title167">cs343-&gt;cs242</title>
    <path
       fill="none"
       stroke="#000000"
       d="m 549.88,-565.1 -13.344,9.44 q -3.336,2.36 -23.336,3.96 l -60,4.8 q -20,1.6 -23.178,5.77 l -12.712,16.68"
       id="path167" />
    <polygon
       fill="#000000"
       stroke="#000000"
       points="414.59,-526.66 420.16,-522.41 411.32,-516.58 "
       id="polygon167" />
  </g>
  <g
     id="node57"
     class="node elective fall"
     transform="translate(-62.000903,757.8)">
    <title
       id="title168">cs345</title>
    <polygon
       fill="#ffffff"
       stroke="#000000"
       points="112.07,-601.3 112.07,-565.3 208.32,-565.3 208.32,-601.3 "
       id="polygon168" />
    <text
       text-anchor="middle"
       x="160.2"
       y="-589.20001"
       font-family="Times, serif"
       font-size="8px"
       id="text168">CS 345</text>
    <text
       text-anchor="middle"
       x="160.2"
       y="-580.20001"
       font-family="Times, serif"
       font-size="8px"
       id="text169">Probabilistic Foundations</text>
    <text
       text-anchor="middle"
       x="160.2"
       y="-571.20001"
       font-family="Times, serif"
       font-size="8px"
       id="text170">of Machine Learning</text>
  </g>
  <g
     id="edge52"
     class="edge options"
     transform="translate(-62.000903,757.8)">
    <title
       id="title170">cs345-&gt;math225or205or206</title>
    <path
       fill="none"
       stroke="#000000"
       d="m 117.84,-564.88 -38.112,15.664 c -6.352,2.61067 -9.528,14.73267 -9.528,36.366 v 97.35 c 0,21.63333 8.54819,35.57434 26.292,37.478 0,0 157.2737,9.83583 173.108,18.572"
       id="path170"
       sodipodi:nodetypes="cssssc" />
  </g>
  <g
     id="node58"
     class="node opt"
     transform="translate(-62.000903,757.8)">
    <title
       id="title171">cs204or220or320or323</title>
    <polygon
       fill="#ffffff"
       stroke="#000000"
       points="842,-497.05 849.2,-489.85 856.4,-497.05 849.2,-504.25 "
       id="polygon171" />
  </g>
  <g
     id="edge74"
     class="edge option"
     transform="translate(-62.000903,757.8)">
    <title
       id="title172">cs204or220or320or323-&gt;cs204</title>
    <path
       fill="none"
       stroke="#000000"
       d="m 847.81,-490.77 -10.088,38.176 q -2.522,9.544 -2.522,42.824 v 99.84 q 0,33.28 4.948,39.096 l 19.792,23.264"
       id="path172" />
    <polygon
       fill="#000000"
       stroke="#000000"
       points="857.2,-245.38 862.53,-249.92 866.35,-240.03 "
       id="polygon172" />
  </g>
  <g
     id="edge75"
     class="edge option"
     transform="translate(-62.000903,757.8)">
    <title
       id="title173">cs204or220or320or323-&gt;cs220</title>
    <path
       fill="none"
       stroke="#000000"
       d="m 850.17,-490.29 14.424,85.792 q 3.606,21.448 21.978,48.448 l 73.488,108"
       id="path173" />
    <polygon
       fill="#000000"
       stroke="#000000"
       points="957.06,-246.25 962.84,-250.19 965.58,-239.95 "
       id="polygon173" />
  </g>
  <g
     id="edge76"
     class="edge option"
     transform="translate(-62.000903,757.8)">
    <title
       id="title174">cs204or220or320or323-&gt;cs320</title>
    <path
       fill="none"
       stroke="#000000"
       d="m 854.15,-494.5 194.15,60.62"
       id="path174" />
    <polygon
       fill="#000000"
       stroke="#000000"
       points="1047.04,-430.61 1049.13,-437.29 1057.63,-430.97 "
       id="polygon174" />
  </g>
  <g
     id="edge77"
     class="edge option"
     transform="translate(-62.000903,757.8)">
    <title
       id="title175">cs204or220or320or323-&gt;cs323</title>
    <path
       fill="none"
       stroke="#000000"
       d="m 853.35,-493.63 85.67,49.9"
       id="path175" />
    <polygon
       fill="#000000"
       stroke="#000000"
       points="937.2,-440.74 940.73,-446.79 947.61,-438.73 "
       id="polygon175" />
  </g>
  <g
     id="node59"
     class="node opt"
     transform="translate(-62.000903,757.8)">
    <title
       id="title176">cs220or221or320or321</title>
    <polygon
       fill="#ffffff"
       stroke="#000000"
       points="1051,-497.05 1058.2,-489.85 1065.4,-497.05 1058.2,-504.25 "
       id="polygon176" />
  </g>
  <g
     id="edge78"
     class="edge option"
     transform="translate(-62.000903,757.8)">
    <title
       id="title177">cs220or221or320or321-&gt;cs221</title>
    <path
       fill="none"
       stroke="#000000"
       d="m 1061.64,-493.2 48.45,40.12 q 12.11,10.03 12.11,22.03 v 36 q 0,12 -3,33.28 l -9,63.84 q -3,21.28 -4.57,26.692 l -6.27,21.648"
       id="path177" />
    <polygon
       fill="#000000"
       stroke="#000000"
       points="1096.1,-250.91 1102.83,-248.97 1096.68,-240.34 "
       id="polygon177" />
  </g>
  <g
     id="edge79"
     class="edge option"
     transform="translate(-62.000903,757.8)">
    <title
       id="title178">cs220or221or320or321-&gt;cs220</title>
    <path
       fill="none"
       stroke="#000000"
       d="m 1056.67,-490.81 -70.25,241.18"
       id="path178" />
    <polygon
       fill="#000000"
       stroke="#000000"
       points="983.07,-250.62 989.79,-248.67 983.63,-240.05 "
       id="polygon178" />
  </g>
  <g
     id="edge80"
     class="edge option"
     transform="translate(-62.000903,757.8)">
    <title
       id="title179">cs220or221or320or321-&gt;cs320</title>
    <path
       fill="none"
       stroke="#000000"
       d="m 1060.04,-491.19 14.04,37.12"
       id="path179" />
    <polygon
       fill="#000000"
       stroke="#000000"
       points="1070.73,-453.03 1077.28,-455.51 1077.55,-444.92 "
       id="polygon179" />
  </g>
  <g
     id="edge81"
     class="edge option"
     transform="translate(-62.000903,757.8)">
    <title
       id="title180">cs220or221or320or321-&gt;cs321</title>
    <path
       fill="none"
       stroke="#000000"
       d="m 1053.72,-494.04 -112.27,51.12"
       id="path180" />
    <polygon
       fill="#000000"
       stroke="#000000"
       points="940.24,-446.23 943.35,-439.96 932.84,-438.64 "
       id="polygon180" />
  </g>
  <g
     id="node60"
     class="node elective spring"
     transform="translate(-62.000903,757.8)">
    <title
       id="title181">cs365</title>
    <polygon
       fill="#ffffff"
       stroke="#000000"
       points="1016.45,-601.3 1016.45,-565.3 1099.95,-565.3 1099.95,-601.3 "
       id="polygon181" />
    <text
       text-anchor="middle"
       x="1058.2"
       y="-589.20001"
       font-family="Times, serif"
       font-size="8px"
       id="text181">CS 365</text>
    <text
       text-anchor="middle"
       x="1058.2"
       y="-580.20001"
       font-family="Times, serif"
       font-size="8px"
       id="text182">Advanced Projects in</text>
    <text
       text-anchor="middle"
       x="1058.2"
       y="-571.20001"
       font-family="Times, serif"
       font-size="8px"
       id="text183">Playable Media</text>
  </g>
  <g
     id="edge82"
     class="edge options"
     transform="translate(-62.000903,757.8)">
    <title
       id="title183">cs365-&gt;cs220or221or320or321</title>
    <path
       fill="none"
       stroke="#000000"
       d="m 1058.2,-564.84 v 60.23"
       id="path183" />
  </g>
  <g
     id="node61"
     class="node elective fall"
     transform="translate(-62.000903,757.8)">
    <title
       id="title184">cs366</title>
    <polygon
       fill="#ffffff"
       stroke="#000000"
       points="804.45,-601.3 804.45,-565.3 887.95,-565.3 887.95,-601.3 "
       id="polygon184" />
    <text
       text-anchor="middle"
       x="846.20001"
       y="-589.20001"
       font-family="Times, serif"
       font-size="8px"
       id="text184">CS 366</text>
    <text
       text-anchor="middle"
       x="846.20001"
       y="-580.20001"
       font-family="Times, serif"
       font-size="8px"
       id="text185">Advanced Projects in</text>
    <text
       text-anchor="middle"
       x="846.20001"
       y="-571.20001"
       font-family="Times, serif"
       font-size="8px"
       id="text186">Interactive Media</text>
  </g>
  <g
     id="edge83"
     class="edge options"
     transform="translate(-62.000903,757.8)">
    <title
       id="title186">cs366-&gt;cs204or220or320or323</title>
    <path
       fill="none"
       stroke="#000000"
       d="m 846.82,-564.84 2.15,60.23"
       id="path186" />
  </g>
  <g
     id="edge20"
     class="edge"
     transform="translate(-62.000903,757.8)">
    <title
       id="title187">_req230-&gt;cs230</title>
    <path
       fill="none"
       stroke="#000000"
       d="m 573.74,-383.05 9.86,103.14"
       id="path187" />
    <polygon
       fill="#000000"
       stroke="#000000"
       points="580.1,-279.77 587.07,-280.44 584.54,-270.15 "
       id="polygon187" />
  </g>
</svg>
