{
  "blank_response": true,
  "course_name": "cs110",
  "description": "unknown",
  "details": "",
  "distributions": "",
  "extra_info": [],
  "id": "cs110",
  "linked_courses": "",
  "meeting_info": "",
  "prereqs": "",
  "professors": [],
  "section": "1",
  "semester": "202509",
  "term": "?"
}